…
We can also look at different attributes that the articles have such as
number of images and number of number of videos. We can explore if there
are more shares with more images or videos.

``` r
worldTrain %>%
  group_by(num_imgs, num_videos) %>%
  summarise(mean = mean(shares), sd = sd(shares))
```

    ## `summarise()` has grouped output by 'num_imgs'. You can override using the `.groups` argument.

    ## # A tibble: 169 × 4
    ## # Groups:   num_imgs [45]
    ##    num_imgs num_videos   mean     sd
    ##       <dbl>      <dbl>  <dbl>  <dbl>
    ##  1        0          0  2377.  3254.
    ##  2        0          1  3017.  6217.
    ##  3        0          2  4857. 14080.
    ##  4        0          3  7825. 13956.
    ##  5        0          4 12100     NA 
    ##  6        0          5  5900     NA 
    ##  7        0          6  1500     NA 
    ##  8        0          8  1100     NA 
    ##  9        0          9  1967.   776.
    ## 10        0         10  2400   1556.
    ## # ℹ 159 more rows
…
